CBSA,Priority,TimeZone,LocationCount,QueryCount,Complexity,GrubHub ThreadID,UberEats ThreadID,DoorDash ThreadID,Location 1,Location 2,Location 3,Location 4,Location 5,Location 6,Location 7,Location 8,Location 9,Location 10,Location 11,Location 12,Query 1,Query 2,Query 3,Query 4,Query 5,Query 6,Query 7,Query 8,Query 9,Query 10
Chicago-Naperville-Elgin IL-IN-WI,1,America/Chicago,11,10,110,1,1,1,"1130 Remington Rd, Schaumburg, IL 60173","301 N Washington St, Naperville, IL 60540","205 E Butterfield Rd, Elmhurst, IL 60126","201 Scoville Ave, Oak Park, IL 60302","5 S Prospect Ave, Park Ridge, IL 60068","1326 Shermer Rd, Northbrook, IL 60062","120 W Washington St, Chicago, IL 60602","2018 W North Ave, Chicago, IL 60647","810 W Diversey Pkwy, Chicago, IL 60614","5801 S Ellis Ave, Chicago, IL 60637","820 Foster St, Evanston, IL 60201",,pizza,chinese,mexican,sushi,breakfast,thai,tacos,wings,indian,italian
Los Angeles-Long Beach-Anaheim CA,1,America/Los_Angeles,11,10,110,1,1,1,"200 Spectrum Center Dr, Irvine, CA 92618","26 Kennebec Ave, Long Beach, CA 90803","24250 Town Center Dr, Santa Clarita, CA 91355","15301 Ventura Blvd, Sherman Oaks, CA 91403","200 S Anaheim Blvd , Anaheim, CA 92805","100 W California Blvd, Pasadena, CA 91105","1111 S Figueroa St, Los Angeles, CA 90015","6333 W 3rd St, Los Angeles, CA 90036","9786 W Pico Blvd, Los Angeles, CA 90035","1900 Pico Blvd, Santa Monica, CA 90405","1439 Pacific Coast Hwy, Hermosa Beach, CA 90254",,pizza,sushi,thai,chinese,mexican,breakfast,indian,vegan,italian,wings
Boston-Cambridge-Newton MA-NH,1,America/New_York,10,10,100,1,1,2,"251 Massachusetts Ave, Boston, MA 02115","65 Causeway St, Boston, MA 02114","2197 Commonwealth Avenue, Boston, MA 02135","77 Dorchester St, Boston, MA 02127","5 Turner St, Waltham, MA 02453","27 Harbor Point Blvd, Dorchester, MA 02125","149 First St, Cambridge, MA 02142","170 Everett Ave, Chelsea, MA 02150","41 Bow St, Everett, MA 02149","500 Soldiers Field Rd, Boston, MA 02134",,,pizza,chinese,sushi,thai,mexican,indian,breakfast,ice cream,wings,italian
New York CBSA Excluding Manhattan,1,America/New_York,10,10,100,1,1,2,"700 Clinton Street, Hoboken, NJ 07030","500 5th Street, Brooklyn, NY 11215","682 Prospect Place, Brooklyn, NY 11216","300 Bedford Avenue, Brooklyn, NY 11249","30 Commercial Avenue, Garden City, NY 11530","15 West Seaman Avenue, Freeport, NY 11520","34-50 29th St, Long Island City, Queens 11106","130 Mitchell Place, White Plains, NY 10601","268-202 Sickles Ave, New Rochelle, NY 10801","264 King St, Port Chester, NY 10573",,,pizza,chinese,sushi,mexican,thai,breakfast,indian,italian,wings,burger
San Francisco-Oakland-Hayward CA,1,America/Los_Angeles,10,10,100,1,1,17,"710 Ashbury St, San Francisco, CA 94117","83 Minna St, San Francisco, CA 94105","2516 Mission St, San Francisco, CA 94110","3250 Lakeshore Ave, Oakland, CA 94610","1645 Van Ness Ave, San Francisco, CA 94109","1200 Irving St, San Francisco, CA 94122","1353 Park St, Alameda, CA 94501","1915 San Pablo Ave, Oakland, CA 94612","2701 Hacienda St, San Mateo, CA 94403","901 Cherry Ave, San Bruno, CA 94066",,,pizza,chinese,sushi,thai,mexican,indian,breakfast,burger,italian,dessert
Washington-Arlington-Alexandria DC-VA-MD-WV,1,America/New_York,10,10,100,1,1,3,"1115A U St NW, Washington, DC 20009","4100 N Fairfax Dr, Arlington, VA 22201","3155 Mt Pleasant St NW, Washington, DC 20010","3700 o st nw, washington, dc 20057","400 New Jersey Ave NW, Washington, DC 20001","4530 40th St NW, Washington, DC 20016","2910 District Ave, Fairfax, VA 22031","7235 Woodmont Ave, Bethesda, MD 20814","9811 Washingtonian Blvd, Gaithersburg, MD, 20878","112 N St Asaph St, Alexandria, VA 22314",,,pizza,chinese,thai,sushi,indian,mexican,wings,breakfast,burger,italian
Atlanta-Sandy Springs-Roswell GA,1,America/New_York,10,10,100,1,1,3,"285 Centennial Olympic Park Dr NW, Atlanta, GA 30313","353 Ferst Dr, Atlanta, GA 30332","303 Peachtree St NE, Atlanta, GA 30308","87 Peachtree St SW, Atlanta, GA 30303","675 Ponce De Leon Ave NE, Atlanta, GA 30308","400 17th St NW, Atlanta, GA 30363","2828 Peachtree Rd NW, Atlanta, GA 30305","3300 Windy Ridge Pkwy SE, Atlanta, GA 30339","222 12th St NE, Atlanta, GA 30309","571 South Kilgo Cir NE, Atlanta, GA 30322",,,wings,pizza,chinese,sushi,mexican,indian,thai,breakfast,italian,burger
Dallas-Fort Worth-Arlington TX,1,America/Chicago,10,10,100,1,1,3,"8066 Park Ln, Dallas, TX 75231","3377 Blackburn St, Dallas, TX 75204","750 Fort Worth Ave, Dallas, TX 75208","5009 Addison Cir, Addison, TX 75001","1801 N Greenville Ave, Richardson, TX 75081","410 W 7th St, Fort Worth, TX 76102","1045 Hidden Ridge, Irving, TX 75038","351 Central Ave, Grapevine, TX 76051","2208 Beechwood Dr, Arlington, TX 76006","5905 Legacy Dr, Plano, TX 75024",,,Pizza,wings,italian,chicken,chinese,sushi,mexican,thai,breakfast,Indian
Phoenix-Mesa-Scottsdale AZ,1,America/Phoenix,10,10,100,1,1,4,"727 E Vista Del Cerro Dr, Tempe, AZ 85281","7622 E 3rd St, Scottsdale, AZ 85251","6753 E Aire Libre Ln, Scottsdale, AZ 85254","120 E Taylor St, Phoenix, AZ 85004","815 W Amelia Ave, Phoenix, AZ 85013","7114 W Jenan Dr, Peoria, AZ 85345","3523 W Boston St, Chandler, AZ 85226","837 S Ash St, Gilbert, AZ 85233","1114 E 9th St, Mesa, AZ 85203","6851 S Bandit Ct, Gilbert, AZ 85297",,,pizza,chinese,mexican,sushi,thai,wings,breakfast,chipotle,indian,italian
Philadelphia-Camden-Wilmington PA-NJ-DE-MD,1,America/New_York,9,10,90,1,1,4,"600 S Washington Square, Philadelphia, PA 19106","7200 Frankford Ave, Philadelphia, PA 19135",,"2200 Benjamin Franklin Pkwy Philadelphia, PA 19130","1500 Locust St, Philadelphia, PA 19102","1001 n 2nd St. Philadelphia, PA 19123","3900 City Ave, Philadelphia, PA 19131","111 Bill Smith Blvd, King of Prussia, PA 19406","1 Park Ln Blvd, Cherry Hill, NJ 08002","3131 Walnut st. Philadelphia, PA 19104",,,pizza,chinese,sushi,breakfast,mexican,wings,thai,indian,cheesesteaks,salad
"New York, NY - Manhattan",1,America/New_York,7,10,70,1,1,4,"8 West 38th Street, Manhattan, NY 10018","104 Mercer St, New York, NY 10012","55 Liberty St, New York, NY 10005","200 83rd Street, NY, New York 10028","200 West 83rd Street, NY, New York 10024","200 West 131st Street, New York, NY 10027","1000 West 174th Street, New York, NY 10033",,,,,,pizza,chinese,sushi,mexican,thai,breakfast,indian,italian,wings,burger
Indianapolis-Carmel-Anderson IN,1,America/New_York,5,10,50,1,1,1,"2160 E 116th St, Carmel, IN 46032","1 Municipal Dr, Fishers, IN 46038","4430 McCoy St, Indianapolis, IN 46226","1 S Capitol Ave, Indianapolis, IN 46204","454 E Stop 11 Rd, Indianapolis, IN 46227",,,,,,,,pizza,chinese,sushi,mexican,thai,breakfast,indian,italian,wings,burger
Seattle-Tacoma-Bellevue WA,2,America/Los_Angeles,12,10,120,1,3,5,"1201 E. Howell St, Seattle, WA 98122","111 W. Comstock St. Seattle, Wa, 98119","6527 17th Ave. NW, Seattle, WA 98117","5025 25th Ave. NE, Seattle, WA, 98105","3645 45th Ave. SW, Seattle, WA 98116","6804 S 123rd St, Seattle, WA 98178","11233 NE 94th St., Kirkland, WA, 98033","15658 SE. 9th St., Bellevue, WA, 98008","11731 SE 60th St. Bellevue, WA 98006","2525 S I St. Tacoma, WA, 98405","2630 S 38th St, Tacoma, WA, 98409","4008 S 12th St, Tacoma, WA, 98405",pizza,thai,chinese,mexican,indian,sushi,chinese,burger,vegan,fried chicken
Austin-Round Rock TX,2,America/Chicago,10,10,100,1,3,5,"150 Sundance Pkwy, Round Rock, TX 78681","1001 E Whitestone Blvd, Cedar Park, TX 78613","4616 Triangle Ave, Austin, TX 78751","13581 Pond Springs Rd, Austin, TX 78729","11900 Metric Blvd, Austin, TX 78758","1728 Barton Springs Rd, Austin, TX 78704","5526 S Congress Ave, Austin, TX 78745","4301 W. William Cannon Dr, Austin, TX 78749","9705 Woodshire Dr, Austin, TX 78748","2320 N Interstate 35 Frontage Rd, Round Rock, TX 78681",,,wings,pizza,mexican,Italian,chinese,Thai,burger,sandwhich,sushi,chicken
Baltimore-Columbia-Towson MD,2,America/New_York,10,10,100,1,3,6,"23 W Aylesbury Rd, Lutherville-Timonium, MD 21093","828 Dulaney Valley Rd, Towson, MD 21204","40 York Rd, Towson, MD 21204","6080 Falls Rd # 9, Baltimore, MD 21209","2501 Cleanleigh Dr, Parkville, MD 21234","3401 Chestnut Ave, Baltimore, MD 21211","24 W Franklin St, Baltimore, MD 21201","857 E Fort Ave, Baltimore, MD 21230","1001 Fleet St, Baltimore, MD 21202","2610 Boston St, Baltimore, MD 21224",,,chinese,pizza,sushi,indian,breakfast,mexican,wings,chipotle,thai,chicken
Charlotte-Concord-Gastonia NC-SC,2,America/New_York,10,10,100,1,2,6,"4330 Westmont Dr, Charlotte, NC 28217","1658 Sterling Rd, Charlotte, NC 28209","4400 Sharon Rd, Charlotte, NC 28211","7400 City View Dr, Charlotte, NC 28212","2465 Mecklenburg Ave, Charlotte, NC 28205","3807 Statesville Ave, Charlotte, NC 28206","820 Hamilton St, Charlotte, NC 28206","530 E M.L.K. Jr Blvd, Charlotte, NC 28202","2921 N Tryon St, Charlotte, NC 28206","4150 Yancey Rd, Charlotte, NC 28217",,,pizza,chinese,sushi,mexican,thai,breakfast,indian,italian,wings,burger
Columbus OH,2,America/New_York,10,10,100,1,2,6,"49 E 14th Ave, Columbus, OH 43201","57 West Weber Road, Columbus, OH 43202","2275 Antigua Drive, Columbus, OH 43235","362 Hanford St, Columbus, OH 43206","886 Thomas Road, Columbus, OH 43212","1815 Bryden Road, Columbus, OH 43205","1057 Neil Ave, Columbus, OH 43201","10 E Morill Ave, Columbus, OH 43207","8298 Pinney Hill Ct, Columbus, OH 43085","364 E Beck St, Columbus, OH 43206",,,pizza,chinese,sushi,wings,indian,chipotle,mexican,breakfast,italian,ice cream
Denver-Aurora-Lakewood CO,2,America/Denver,10,10,100,1,2,7,"2055 S Oneida Street Denver, CO 80224","1533 Champa Street Denver, CO 80202","3500 E Colfax Ave Denver, CO 80206","5395 W 38th ave Wheat Ridge, CO 80212","6400 Leetsdale Dr Denver, CO 80224","5380 Greenwood Plaza Blvd Greenwood Village, CO 80111","10230 E Arapahoe RD Centennial, CO 80112","8437 Park Meadows Center Dr Lone Tree, CO 80124","7318 Federal Blvd Westminster, CO 80030","431 S Broadway Denver, CO 80209",,,pizza,chinese,sushi,mexican,pho,wings,indian,thai,breakfast,italian
Houston-The Woodlands-Sugar Land TX,2,America/Chicago,10,10,100,1,2,7,"2300 Richmond Ave, Houston, TX 77098","7550 Kirby Dr, Houston, TX 77030","225 Fluor Daniel Dr, Sugar Land, TX 77479","10401 Town and Country Way, Houston, TX 77024","700 Cobia Dr, Katy, TX 77494","21550 Provincial Blvd, Katy, TX 77450","1 Waterway Ave, The Woodlands, TX 77380","19939 Chasewood Park Dr, Houston, TX 77070","10200 Six Pines Dr, Spring, TX 77380","5880 Inwood Dr, Houston, TX 77057",,,pizza,chinese,wings,sushi,mexican,thai,indian,italian,breakfast,bbq
Cleveland-Elyria OH,2,America/New_York,10,10,100,1,2,16,"1380 East 6th Street, Cleveland, OH 44114","2219 Chestnut Hills Dr, Cleveland, OH 4410","16500 Kenneth Lane, Lakewood, OH 44107","25881 Kennedy Ridge Road, North Olmstead, OH 44070","4141 Rockside Rd, Seven Hills, OH 44131","9909 Newton Ave, Cleveland, OH 44106","2625 E 127th St, Cleveland, OH 44120","1630 Crossings Pkwy, Westlake, OH 44145","4418 West Ridgewood Drive, Parma, OH 44134","1700 Carlton Rd, Parma, OH 44134",,,pizza,chinese,sushi,mexican,thai,breakfast,chinese,italian,wings,burger
Las Vegas-Henderson-Paradise NV,2,America/Los_Angeles,10,10,100,1,2,8,"151 Rancho Maria St, Las Vegas, NV 89148","700 E Warm Springs Rd, Las Vegas, NV 89119","2201 Ramsgate Dr , Henderson, NV 89074","1724 Estrella St, Las Vegas, NV 89117","5909 Ferrell St, Las Vegas, NV 89031","2651 Soda Butte Ct, Henderson, NV 89052","7987 Placid St, Las Vegas, NV 89123","359 Wilford Springs St, Henderson, NV 89014","9124 Umberland Ave, Las Vegas, NV 89149","3744 Bossa Nova Dr, Las Vegas, NV 89129",,,pizza,chinese,thai,sushi,mexican,breakfast,vegan,wings,pho,burgers
Miami-Fort Lauderdale-West Palm Beach FL,2,America/New_York,10,10,100,1,2,8,"11 Washington Ave, Miami Beach, FL 33139","1435 Collins Ave, Miami Beach, FL 33139","2445 Collins Ave, Miami Beach, FL 33140","3501 SW 8th St, Miami, FL 33135","2520 NW 2nd Ave, Miami, FL 33127","6701 Collins Ave, Miami Beach, FL 33141","1140 Seabreeze Blvd, Fort Lauderdale, FL 33316","620 E Las Olas Blvd, Fort Lauderdale, FL 33301","300 Connecticut St, Hollywood, FL 33019","21035 Biscayne Blvd, Aventura, FL 33180",,,pizza,chinese,sushi,breakfast,wings,mexican,thai,italian,burger,vegan
Morgantown WV,2,America/New_York,10,10,100,1,2,8,"1780 Van Voorhis Rd, Morgantown, WV 26508","5000 Domain Dr, Morgantown, WV 26501","823 Alpine St, Morgantown, WV 26505","440 Clark St, Morgantown, WV 26501","500 Koehler Dr, Morgantown, WV 26508","425 Ash St, Morgantown, WV 26501","209 McLane Ave, Morgantown, WV 26505","725 Wells St, Morgantown, WV 26505","3490 Collins Ferry Rd, Morgantown, WV 26505","487 Dallas St, Morgantown, WV 26505",,,pizza,chinese,sushi,mexican,thai,breakfast,indian,italian,wings,burger
Orlando-Kissimmee-Sanford FL,2,America/New_York,10,10,100,1,2,9,"1000 Holt Ave, Winter Park FL 32789","671 Winyah Dr, Orlando, FL 32803","3101 W Princeton St, Orlando, FL 32808","777 E Princeton St, Orlando, FL 32803","3201 E Colonial Dr, Orlando, FL 32803","401 W Livingston St, Orlando, FL 32801","1603 Greenwood St, Orlando, FL 32801","2811 Curry Ford Rd, Orlando, FL 32806","1236 Kaley Ave, Orlando, FL 32805","2603 E South St, Orlando, FL 32803",,,pizza,chinese,sushi,mexican,thai,breakfast,indian,italian,wings,burger
Oxnard-Thousand Oaks-Ventura CA,2,America/Los_Angeles,10,10,100,1,2,9,"477 N Oxnard Blvd, Oxnard, CA 93030","2070 E Harbor Blvd, Ventura, CA 93001","520 Arneill Rd, Camarillo, CA 93010","2001 N Rose Ave, Oxnard, CA 93036","701 E Bard Rd, Oxnard, CA 93033","1750 E Los Angeles Ave, Simi Valley, CA 93065","1 W Los Angeles Ave, Moorpark, CA 93021","2160 Newbury Rd A, Thousand Oaks, CA 91320","1074 E Avenida De Los Arboles, Thousand Oaks, CA 91360","5869 Kanan Rd, Agoura Hills, CA 91301",,,pizza,chinese,sushi,mexican,thai,breakfast,indian,italian,wings,burger
Pittsburgh PA,2,America/New_York,10,10,100,1,2,9,"2031 Wendover St, Pittsburgh, PA 15217","621 Ivy St, Pittsburgh, PA 15232","238 46th Street, Pittsburgh, PA 15201","1251 Illinois Ave, Pittsburgh, PA 15216","412 Natchez St, Pittsburgh, PA 15211","333 Lawn St, Pittsburgh, PA 15213","4633 Plummer St, Pittsburgh, PA 15201","1201 Palo Alto St, Pittsburgh, PA 15212","240 Elizabeth Ave, Pittsburgh, PA 15112","522 Hillcrest Place, Pittsburgh, PA 15216",,,pizza,chinese,thai,wings,sushi,indian,mexican,breakfast,ice cream,burger
Sacramento--Roseville--Arden-Arcade CA,2,America/Los_Angeles,10,10,100,1,2,10,"915 I St, Sacramento, CA 95814","1813 N St, Sacramento, CA 95811","1717 34th St, Sacramento, CA 95816","3271 Azevedo Dr, Sacramento, CA 95833","4422 Y St, Sacramento, CA 95817","9190 Schmuckley Dr, Sacramento, CA 95826","3300 Capital Center Dr, Rancho Cordova, CA 95670","6211 Summerset Ln, Citrus Heights, CA 95621","700 Vallejo Ave, Roseville, CA 95678","1850 Club Center Dr, Sacramento, CA 95835",,,pizza,chinese,sushi,mexican,thai,breakfast,chinese,italian,wings,burger
Salt Lake City UT,2,America/Denver,10,10,100,1,2,10,"1729 Laird Ave, Salt Lake City, UT 84108","1449 Princeton Ave S, Salt Lake City, UT 84105","379 E Vine St, Murray, UT 84107","425 E 1700 S, Salt Lake City, UT 84115","202 S 800 E, Salt Lake City, UT 84102","3535 S Shafer Ln, Salt Lake City, UT 84119","169 W 400 N, Salt Lake City, UT 84103","9172 Sunfire Rose Ln E, Sandy, UT 84070","1785 E Meadow Downs Way, Salt Lake City, UT 84121","10333 Temple View Dr, South Jordan, UT 84095",,,pizza,chinese,sushi,mexican,thai,breakfast,chinese,italian,wings,burger
San Antonio-New Braunfels TX,2,America/Chicago,10,10,100,1,2,10,"7903 Pat Booker Rd, San Antonio, TX 78233","999 E Basse Rd, San Antonio, TX 78209","1503 N Main Ave, San Antonio, TX 78212","734 W Bitters Rd, San Antonio, TX 78216","19141 Stone Oak Pkwy, San Antonio, TX 78258","7959 Fredericksburg Rd, San Antonio, TX 78229","5639 IH 10 West, San Antonio, TX 78249","7664 Tezel Rd, San Antonio, TX 78250","8438 Texas 151, San Antonio, TX 78245","5105 Walzem Rd, Windcrest, TX 78218",,,wings,pizza,mexican,Italian,chinese,thai,chinese,Sandwhich,Sushi,Chicken
San Diego-Carlsbad CA,2,America/Los_Angeles,10,10,100,1,4,11,"1640 Camino Del Rio N, San Diego, CA 92108","527 University Avenue San Diego, CA 92103","9804 Mission Gorge Rd Santee, CA 92071","5500 Grossmont Center Dr La Mesa, CA 91942","4353 La Jolla Village Dr San Diego, CA 92122","1285 Broadway, Chula Vista, CA 91911","2015 Birch Rd, Chula Vista, CA 91915","1747 India St San Diego, CA 92101","11602 Carmel Mountain Rd San Diego, CA 92128","2681 Gateway Rd Carlsbad, CA 92009",,,pizza,sushi,thai,mexican,chinese,breakfast,chinese,italian,indian,dessert
San Jose-Sunnyvale-Santa Clara CA,2,America/Los_Angeles,10,10,100,1,3,11,"1040 Grant Rd, Mountain View, CA 94040","190 S Murphy Ave, Sunnyvale, CA 94086","150 E Fremont Ave, Sunnyvale, CA 94087","75 Arbor Rd, Menlo Park, CA 94025","111 N Rengstorff Ave, Mountain View, CA 94043","3540 Homestead Rd, Santa Clara, CA 95051","1399 W San Carlos St, San Jose, CA 95126","533 Coleman Ave, San Jose, CA 95110","760 N 7th St, San Jose, CA 95112","10100 Mary Ave, Cupertino, CA 95014",,,pizza,sushi,indian,chinese,thai,mexican,chinese,vegan,wings,dessert
State College PA,2,America/New_York,10,10,100,1,3,11,"421 E Beaver Ave, State College, Pa 16801","804 Stratford Drive, State College, Pa 16801","675 Tanager Dr, State College, PA 16803","553 Haverford Circle, State College, PA 16803","499 Cricklewood Drive, State College, PA 16803","1422 Trout Rd, State College, PA 16801","300 Wauplelani Drive, State College, PA 16801","2439 Setter Run Lane, State College, PA 16801","1391 University Drive, State College, PA 16801","230 Innovation Blvd, State College, PA 16803",,,pizza,chinese,sushi,mexican,thai,breakfast,chinese,italian,wings,burger
Tampa-St. Petersburg-Clearwater FL,2,America/New_York,10,10,100,1,3,12,"1911 E Bearss Ave, Tampa, FL 33613","4050 W Kennedy Blvd, Tampa, FL 33609","6102 S MacDill Ave, Tampa, FL 33611","11105 Causeway Blvd, Brandon, FL 33511","7011 W Hillsborough Ave, Tampa, FL 33634","4535 Gunn Hwy, Tampa, FL 33624","7805 Temple Terrace Hwy, Temple Terrace, FL 33637","350 W Waters Ave, Tampa, FL 33614","2774 E Fowler Ave, Tampa, FL, 33612","6742 Memorial Hwy, Tampa, FL 33615",,,pizza,chinese,sushi,mexican,thai,breakfast,chinese,italian,wings,burger
Allentown-Bethlehem-Easton PA-NJ,2,America/New_York,10,10,100,1,3,12,"27 N 7th St, Allentown, PA 18101","1345 Martin Ct, Bethlehem, PA 18018","416 E 5th St, Bethlehem, PA 18015","1555 Spillman Dr, Bethlehem, PA 18015","92 Upper Sayre Park Rd, Bethlehem, PA 18015","776 Sullivan Rd, Easton, PA 18042","2400 W Chew St, Allentown, PA 18104","317 Bridge St, Catasauqua, PA 18032","1415 Stefko Blvd, Bethlehem, PA 18017","1818 Catasauqua Rd, Bethlehem, PA 18018",,,pizza,chinese,sushi,mexican,thai,breakfast,chinese,italian,wings,burger
Bridgeport-Stamford-Norwalk CT,2,America/New_York,9,10,90,1,3,12,"115 New Canaan Ave, Norwalk, CT 06850","711 Canal St, Stamford, CT 06902","14 Harbor Point Rd, Stamford, CT 06902","13 Main St, Stamford, CT 06901","860 E Main St, Stamford, CT 06902","22 Belltown Rd, Stamford, CT 06905","2701 Summer St, Stamford, CT 06905","177 Hamilton Ave, Greenwich, CT 06830","148 Sound Beach Ave, Old Greenwich, CT 06870",,,,pizza,chinese,sushi,indian,mexican,thai,italian,burger,breakfast,wings
Hartford-West Hartford-East Hartford CT,2,America/New_York,5,10,50,1,3,5,"200 Bloomfield Ave, West Hartford, CT 06117","350 Buckland St, Manchester, CT 06042","130 Ann Uccello St, Hartford, CT 06103","30 State House Square, Hartford, CT 06103","24 Park Pl, Hartford, CT 06106",,,,,,,,pizza,chinese,sushi,wings,thai,indian,mexican,breakfast,burgers,italian
St. Louis MO-IL,2,America/Chicago,5,10,50,1,3,20,"529 Chestnut St, Saint Louis, MO, 63101","200 S Central Ave, St. Louis, MO, 63105","1901 Schuetz Rd, Saint Louis, MO, 63146","3851 Veterans Memorial Pkwy, Saint Peters, MO, 63376","1290 State Hwy K, O Fallon, MO, 63366",,,,,,,,pizza,chinese,sushi,mexican,thai,breakfast,chinese,italian,wings,burger
Grand Rapids-Wyoming MI,2,America/New_York,4,10,40,1,3,20,"130 Fulton St W, Grand Rapids, MI 49503","3472 Plainfield Ave NE, Grand Rapids, MI 49525","4250 28th St SE, Grand Rapids, MI 49512","257 54th St SW, Wyoming, MI 49548",,,,,,,,,pizza,chinese,sushi,mexican,thai,breakfast,indian,italian,wings,burger
Ann Arbor MI,2,America/New_York,3,10,30,1,3,4,"434 S State St, Ann Arbor, MI 48109","3971 Research Park Dr, Ann Arbor, MI 48108","900 Oakwood St, Ypsilanti, MI 48197",,,,,,,,,,pizza,chinese,sushi,mexican,thai,breakfast,indian,italian,wings,burger
Minneapolis-St. Paul-Bloomington MN-WI,2,America/Chicago,3,10,30,1,3,20,"1329 5th St SE, Minneapolis, MN 55414","4500 Excelsior Blvd, St Louis Park, MN 55416","75 Rev Dr Martin Luther King Jr Boulevard., St Paul, MN 55155",,,,,,,,,,pizza,chinese,sushi,mexican,thai,breakfast,indian,italian,wings,burger
Nashville-Davidson--Murfreesboro--Franklin TN,2,America/Chicago,3,10,30,1,3,20,"2201 West End Ave, Nashville, TN 37212","1800 Galleria Blvd, Franklin, TN 37067","1131 Bell Rd, Antioch, TN 37013",,,,,,,,,,pizza,chinese,mexican,wings,sushi,thai,breakfast,chicken,hot spicy chicken,indian
Madison WI,2,America/Chicago,2,10,20,1,3,20,"725 S Gammon Rd, Madison, WI 53719","3817 Milwaukee St, Madison, WI 53714",,,,,,,,,,,pizza,chinese,sushi,mexican,thai,breakfast,indian,italian,wings,burger
Worcester MA-CT,2,America/New_York,1,10,10,1,3,20,"50 Foster St, Worcester, MA, 01608",,,,,,,,,,,,pizza,chinese,sushi,mexican,thai,breakfast,chinese,italian,wings,burger
Albuquerque NM,3,America/Denver,10,10,100,1,3,13,"1507 Silver Ave SW, Albuquerque, NM 87104","113 Yale Blvd SE, Albuquerque, NM 87106","8136 Sleeping Bear Dr NW, Albuquerque, NM 87120","2029 11th Ave SE, Rio Rancho, NM 87124","7644 Jefferson St NE, Albuquerque, NM 87109","10400 Academy Rd NE, Albuquerque, NM 87111","6200 Sunray Rd NW, Albuquerque, NM 87120","1020 Walker Dr NE, Albuquerque, NM 87112","3609 Mesa Verde Ave NE, Albuquerque, NM 87110","6120 Downey St NE, Albuquerque, NM 87109",,,pizza,chinese,sushi,mexican,thai,breakfast,chinese,italian,wings,burger
Boulder CO,3,America/Denver,10,10,100,1,3,13,"2000 Arapahoe Ave, Boulder, CO 80302","1101 Walnut St, Boulder, CO 80302","3575 Broadway, Boulder, CO 80304","2205 Norwood Ave, Boulder, CO 80304","325 Broadway, Boulder, CO 80305","1170 Hancock Dr, Boulder, CO 80303","2905 Pearl St, Boulder, CO 80301","240 Kiowa Pl, Boulder, CO 80303","4886 Hopkins Pl, Boulder, CO 80301","250 Arapahoe Ave, Boulder, CO 80302",,,pizza,chinese,sushi,mexican,thai,breakfast,chinese,italian,wings,burger
Charlottesville VA,3,America/New_York,10,10,100,1,3,13,"200 Zan Rd, Charlottesville VA 22901","1115 Emmet St N, Charlottesville, VA 22903","1298 Wellford St, Charlottesville VA 22903","1025 Park St, Charlottesville VA 22901","295 Massie Rd, Charlottesville, VA 22903","10 Duffy Blvd, Charlottesville, VA 22903","105 Emmet St N, Charlottesville, VA 22903","212 Ridge McIntire Rd, Charlottesville, VA 22903","1645 Cherry Ave, Charlottesville, VA 22903","1000 Belmont Ave, Charlottesville, VA 22902",,,pizza,chinese,sushi,mexican,thai,breakfast,chinese,italian,wings,burger
Cincinnati OH-KY-IN,3,America/New_York,10,10,100,1,3,14,"2896 Markbreit Ave, Cincinnati, OH 45209","4401 Lake Forest Dr, Blue Ash, OH 45242","30 E Lakeside Ave, Lakeside Park, KY 41017","4137 Lakeman St, Cincinnati, OH 45223","4137 Victor St, Cincinnati, OH 45219","50 E Freedom Way, Cincinnati, OH 45202","50 Saratoga St, Cincinnati, OH 45204","474 Stanley Ave, Cincinnati, OH 45226","60 Bon Jan Lane, Highland Heights, KY 41076","1686 Montrose St, Cincinnati, OH 45214",,,pizza,chinese,sushi,mexican,thai,breakfast,chinese,italian,wings,burger
Colorado Springs CO,3,America/Denver,10,10,100,1,3,14,"1605 Briargate Pkwy, Colorado Springs, CO 80920","4660 Squirreltail Dr, Colorado Springs, CO 80920","1710 Jet Stream Dr, Colorado Springs, CO 80921","6275 Bridle Spur Ave, Colorado Springs, CO 80922","4815 Barnes Rd, Colorado Springs, CO 80917","1515 N Cascade Ave, Colorado Springs, CO 80907","110 East Costilla St, Colorado Springs, CO 80903","1160 Keith Dr, Colorado Springs, CO 80916","2630 Willard Dr, Colorado Springs, CO 80911","601 Quebec St, Colorado Springs, CO 80911",,,pizza,chinese,sushi,mexican,thai,breakfast,chinese,italian,wings,burger
Durham-Chapel Hill NC,3,America/New_York,10,10,100,1,3,14,"1 Europa Dr, Chapel Hill, NC 27517","609 Hillsborough St, Chapel Hill, NC 27514","1 Winter Dr, Chapel Hill, NC 27517","211 Pittsboro St, Chapel Hill, NC 27516","306 Estes Dr Ext, Carrboro, NC 27510","315 E Chapel Hill St, Durham, NC 27701","3001 Cameron Blvd, Durham, NC 27705","2516 Guess Rd, Durham, NC 27705","715 N Hoover Rd, Durham, NC 27703","2102 W Main St, Durham, NC 27705",,,pizza,chinese,sushi,mexican,thai,breakfast,chinese,italian,wings,burger
El Paso TX,3,America/Chicago,10,10,100,1,3,15,"450 Thorn Ave, El Paso, TX 79912","4799 N Mesa St, El Paso, TX 79912","8889 Gateway Blvd W, El Paso, TX 79925","10497 Gateway Blvd W, El Paso, TX 79925","11905 Gateway Blvd W, El Paso, TX 79936","1831 Montana Ave, El Paso, TX 79902","150 West Castellano Drive, El Paso, TX 79912","9839 Dyer St, El Paso, TX 79924","3460 Joe Battle Blvd, El Paso, TX 79938","6990 N Desert Blvd, El Paso, TX 79912",,,wings,pizza,mexican,Italian,chinese,thai,chinese,sandwhich,sushi,chicken
Raleigh NC,3,America/New_York,10,10,100,1,4,15,"11211 Galleria Avenue, Raleigh, NC 27614","8320 Litchford Rd, Raleigh, NC 27615","8111 Creedmoor Rd, Raleigh, NC 27613","3121 Edwards Mill Rd, Raleigh, NC 27612","3309 Wake Forest Rd, Raleigh, NC 27609","18 Seaboard Ave, Raleigh, NC 27604","3817 Beryl Rd, Raleigh, NC 27607","6715 Hillsborough St, Raleigh, NC 27606","1319 Buck Jones Rd, Raleigh, NC 27606","2851 Jones Franklin Rd, Raleigh, NC 27606",,,pizza,chinese,sushi,mexican,thai,breakfast,chinese,italian,wings,burger
Richmond VA,3,America/New_York,10,10,100,1,4,15,"1303 Hull St, Richmond, VA 23224","2603 E Main St, Richmond, VA 23223","111 E Grace St, Richmond, VA 23219","325 N Robinson St, Richmond, VA 23220","2400 Mechanicsville Turnpike, Richmond, VA 23223","3336 N Boulevard, Richmond, VA 23227","6901 Staples Mill Rd, Richmond, VA 23228","8415 W Broad St, Richmond, VA 23294","11331 W Broad St, Glen Allen, VA 23060","12200 Wegmans Blvd, Henrico, VA 23233",,,pizza,chinese,sushi,mexican,thai,breakfast,chinese,italian,wings,burger
Riverside-San Bernardino-Ontario CA,3,America/Los_Angeles,10,10,100,1,4,16,"1851 N Riverside Ave, Rialto, CA 92376","2250 S Main St, Corona, CA 92882","31700 Temecula Pkwy, Temecula, CA 92592","72780 Country Club Dr, Rancho Mirage, CA 92270","44700 San Jacinto Ave, Palm Desert, CA 92260","25405 Hancock Ave, Murrieta, CA 92562","974 W Foothill Blvd, Upland, CA 91786","10500 Civic Center Dr, Rancho Cucamonga, CA 91730","1467 Ford St , Redlands, CA 92373","21832 Cactus Ave, Riverside, CA 92518",,,pizza,chinese,sushi,mexican,thai,breakfast,chinese,italian,wings,burger
Virginia Beach-Norfolk-Newport News VA-NC,3,America/New_York,10,10,100,1,4,16,"3315 Atlantic Ave, Virginia Beach, VA 23451","357 N Great Neck Rd, Virginia Beach, VA 23454","3750 Virginia Beach Blvd, Virginia Beach, VA, 23452","5483 Virginia Beach Blvd, Virginia Beach, VA 23462","700 Monticello Ave, Norfolk, VA, 23510","3322 Cromwell Rd, Norfolk, VA 23509","5817 Wesleyan Dr, Virginia Beach, VA, 23455","975 Providence Square Shopping Center, Virginia Beach, VA 23464","501 Atlantic Ave, Virginia Beach, VA 23451","2102 Great Neck Square, Virginia Beach, VA 23454",,,pizza,chinese,sushi,mexican,thai,breakfast,chinese,italian,wings,burger
Albany-Schenectady-Troy NY,3,America/New_York,9,10,90,1,4,7,"1 Clinton Sq, Albany, NY 12207","7 Ontario Ave, Rensselaer, NY 12144","1383 Washington Ave, Albany, NY 12206","1751 15th St, Troy, NY 12180","67 Park Ave, Latham, NY 12110","27 Shaker Run, Colonie, NY 12205","1030 Congress St, Schenectady, NY 12303","1098 Douglas Rd, Schenectady, NY 12308","100 Beverwyck Dr, Guilderland, NY 12084",,,,pizza,chinese,sushi,mexican,wings,thai,chinese,indian,burger,chicken joes
Portland-Vancouver-Hillsboro OR-WA,3,America/Los_Angeles,10,9,90,1,4,17,"1115 NW Glisan St, Portland, OR 97209","1000 SW Broadway, Portland, OR 97205","2625 E Burnside St, Portland, OR 97214","2174 NW Davis St, Portland, OR 97210","1035 NE Martin Luther King Jr Blvd, Portland, OR 97232","3120 NW John Olsen Ave, Hillsboro, OR 97124","16200 SW Baseline Rd, Beaverton, OR 97006","9251 SW Cree Cir, Tualatin, OR 97062","1415 SE Spokane St, Portland, OR 97202","1141 SE Harrison St, Portland, OR 97214",,,Pizza,burger,indian,thai,,breakfast,chinese,wings,sushi,mexican
Rochester NY,3,America/New_York,9,10,90,1,4,2,"39 Chautauqua Dr, Rochester, NY, 14623","106 Hulburt Rd, Fairport, NY, 14450","26 Fuller Ave, Webster, NY 14580","591 Elmwood Terrace, Rochester, NY 14620","98 Wilmer Street, Rochester, NY 14607","135 Collingwood Drive, Rochester, NY, 14621","1102 Weiland Rd, Rochester, NY 14626","191 Stowell Drive, Rochester, NY, 14616","154 Roslyn Street, Rochester, NY 14619",,,,pizza,chinese,sushi,mexican,thai,breakfast,chinese,italian,wings,burger
Syracuse NY,3,America/New_York,8,10,80,1,4,17,"136 Weymouth Rd, Syracuse, NY 13205","911 Ackerman Ave, Syracuse, NY 13210","137 Hathaway Rd, Syracuse, NY 13214","120 Pleasantview Avenue, Syracuse, NY 13208","201 Tolbert Drive, Syracuse, NY 13212","4009 Marlton Circle, Liverpool, NY 13090","141 Forrest Way, Camillus, NY 13031","603 Wolcott Avenue, Syracuse, NY 13207",,,,,pizza,chinese,sushi,mexican,thai,breakfast,chinese,italian,wings,burger
New Haven-Milford CT,3,America/New_York,7,10,70,1,4,18,"1027 State St, New Haven, CT 06511","459 Winthrop Ave, New Haven, CT 06511","53 Howe St, New Haven, CT 06511","1143 Chapel St, New Haven, CT 06511","50 Rowe Ave, Milford, CT 06460","100 West Campus Drive, Orange, CT 06477","252 Derby Ave, West Haven, CT 06516",,,,,,pizza,chinese,sushi,mexican,thai,breakfast,chinese,italian,wings,burger
Tucson AZ,3,America/Denver,7,10,70,1,4,18,"909 E 9th St, Tucson, AZ 85719","2703 E Edison St, Tucson, AZ 85716","4118 N Palm Grove Dr, Tucson, AZ 85705","119 W Suffolk Dr, Tucson, AZ 85704","6230 N Camino Esquina, Tucson, AZ 85718","9253 E Bellevue St, Tucson, AZ 85715","9301 E Pikes Peak Dr, Tucson, AZ 85710",,,,,,pizza,chinese,sushi,mexican,thai,breakfast,chinese,italian,wings,burger
Eugene OR,3,America/Los_Angeles,7,9,63,1,4,18,"2083 Lake Isle Dr, Eugene, OR 97401","800 River Rd, Eugene, OR 97404",,"690 E 20th Ave, Eugene, OR 97405",,"1754 Orchard St, Eugene, OR 97403",,"3255 Gateway St, Springfield, OR 97477","2705 Lord Byron Pl, Eugene, OR 97408","855 Seneca Rd, Eugene, OR 97402",,,pizza,burger,burrito,thai,,breakfast,chinese,wings,sushi,mexican
"Greensville, SC",3,America/New_York,6,10,60,1,4,18,"2 S Main St, Greenville, SC, 29601","700 Haywood Rd, Greenville, SC, 29607","1606 Woodruff Rd, Greenville, SC, 29607","306 N Main St, Mauldin, SC, 29662","2703 Wade Hampton Blvd, Greenville, SC, 29615","3935A Pelham Rd, Greenville, SC, 29615",,,,,,,pizza,chinese,sushi,mexican,thai,breakfast,chinese,italian,wings,burger
Buffalo-Cheektowaga-Niagara Falls NY,3,America/New_York,5,10,50,1,4,19,"116 Franklin St, Buffalo, NY 14202","192 Hoyt St, Buffalo, NY 14213","2925 Union Rd, Cheektowaga, NY 14227","71 Campus Dr, Buffalo, NY 14226","666 Mill St, Buffalo, NY 14221",,,,,,,,pizza,chinese,sushi,mexican,thai,breakfast,chinese,italian,wings,burger
"Greensboro-High Point, NC",3,America/New_York,5,10,50,1,4,19,"1424 Westover Ter, Greensboro, NC, 27408","1820 Spring Garden St, Greensboro, NC, 27403","3927 Battleground Ave, Greensboro, NC, 27410","1524 E Market St, Greensboro, NC, 27401","1562 Highwoods Blvd, Greensboro, NC, 27410",,,,,,,,pizza,chinese,sushi,mexican,thai,breakfast,chinese,italian,wings,burger
Providence-Warwick RI-MA,3,America/New_York,5,10,50,1,4,19,"50 Park Row W, Providence, RI 02903","1 Ave of the Arts, Providence, RI 02903","1 Orms St, Providence, RI 02904","325 Valley St, Providence, RI 02908","601 N Main St, Providence, RI 02904",,,,,,,,pizza,chinese,sushi,mexican,thai,breakfast,chinese,italian,wings,burger
Detroit-Warren-Dearborn MI,3,America/New_York,4,10,40,1,4,19,"318 W 4th St, Royal Oak, MI 48067","39581 Twelve Mile Rd, Novi, MI 48377","14000 Lakeside Cir, Sterling Heights, MI 48313","5201 Woodward Ave, Detroit, MI 48202",,,,,,,,,pizza,chinese,sushi,mexican,thai,breakfast,indian,italian,wings,burger
"Des Moines-West Des Moines, IA",3,America/Chicago,4,10,40,1,4,19,"401 SE 5th St, Des Moines, IA, 50309","12851 University Ave, Clive, IA, 50325","1111 E Army Post Rd, Des Moines, IA 50315","2601 SE Delaware Ave, Ankeny, IA 50021",,,,,,,,,pizza,chinese,sushi,mexican,thai,breakfast,chinese,italian,wings,burger
Milwaukee-Waukesha-West Allis WI,3,America/Chicago,4,10,40,1,4,19,"139 E Kilbourn Ave, Milwaukee, WI 53202","3825 S Kinnickinnic Ave, St Francis, WI 53235","8700 W Watertown Plank Rd, Wauwatosa, WI 53226","3909 N Murray Ave, Shorewood, WI 53211",,,,,,,,,pizza,chinese,sushi,mexican,thai,breakfast,chinese,italian,wings,burger
Trenton NJ,3,America/New_York,3,10,30,1,4,20,"72 S Clinton Ave, Trenton, NJ, 08609","3320 Brunswick Pike, Lawrence Township, NJ, 08648","770 Highway 33, Trenton, NJ, 08619",,,,,,,,,,pizza,chinese,sushi,mexican,thai,breakfast,chinese,italian,wings,burger
New Orleans-Metairie LA,3,America/Chicago,3,10,30,1,4,20,"333 St Charles Ave, New Orleans, LA 70130","6823 St Charles Ave, New Orleans, LA 70118","3301 Veterans Memorial Blvd, Metairie, LA 70002",,,,,,,,,,pizza,chinese,sushi,mexican,thai,breakfast,chinese,italian,wings,burger
Birmingham-Hoover AL,3,America/Chicago,2,10,20,1,4,20,"401 19th St S, Birmingham, AL, 35233","1447 Pavillon Dr, Hoover, AL 35226",,,,,,,,,,,pizza,chinese,sushi,mexican,thai,breakfast,chinese,italian,wings,burger
Jacksonville FL,3,America/New_York,2,10,20,1,4,20,"117 W Adams St, Jacksonville, FL, 32202","4712 River City Dr, Jacksonville, FL, 32246",,,,,,,,,,,pizza,chinese,sushi,mexican,thai,breakfast,chinese,italian,wings,burger
Kansas City MO-KS,3,America/Chicago,2,10,20,1,4,20,"101 Southwest Blvd, Kansas City, MO 64108","9700 W 87th St, Overland Park, KS 66212",,,,,,,,,,,pizza,chinese,sushi,mexican,thai,breakfast,chinese,italian,wings,burger
Champaign-Urbana IL,3,America/Chicago,1,10,10,1,4,19,"1111 W Nevada St, Urbana, IL 61801",,,,,,,,,,,,pizza,chinese,sushi,mexican,thai,breakfast,chinese,italian,wings,burger
Iowa City IA,3,America/Chicago,1,10,10,1,4,19,"535 Emerald St, Iowa City, IA 52246",,,,,,,,,,,,pizza,chinese,sushi,mexican,thai,breakfast,chinese,italian,wings,burger
Louisville/Jefferson County KY-IN,3,America/New_York,1,10,10,1,4,18,"2301 S 3rd St, Louisville, KY 40292",,,,,,,,,,,,pizza,chinese,sushi,mexican,thai,breakfast,chinese,italian,wings,burger
Omaha-Council Bluffs NE-IA,3,America/Chicago,1,10,10,1,4,18,"6001 Dodge St, Omaha, NE 68182",,,,,,,,,,,,pizza,chinese,sushi,mexican,thai,breakfast,chinese,italian,wings,burger
Knoxville TN,3,America/New_York,1,10,10,1,4,1,"401 W Summit Hill Dr SW, Knoxville, TN 37902",,,,,,,,,,,,pizza,chinese,sushi,mexican,thai,breakfast,chinese,italian,wings,burger
Tulsa OK,3,America/Chicago,1,10,10,1,4,1,"5555 E 47th Pl, Tulsa, OK 74135",,,,,,,,,,,,pizza,chinese,sushi,mexican,thai,breakfast,chinese,italian,wings,burger